"id,DeviceId/Name,Description,DateCreated"
46,NKA-SM01,asd1,Array,1,"2016-01-01 01:01:01","2016-02-17 12:55:03"
47,NKA-SM01,asd1,"[{""id"":1,""available"":0,""count"":99,""note"":""this is a note for the product in the report"",""photo"":null},{""id"":2,""available"":1,""count"":null,""note"":"""",""photo"":null},{""id"":15,""available"":1,""count"":20,""note"":null,""photo"":null}]",1,"2016-01-01 01:01:01","2016-02-17 12:55:18"
48,NKA-SM01,asd1,"[{""id"":1,""available"":0,""count"":99,""note"":""this is a note for the product in the report"",""photo"":null},{""id"":2,""available"":1,""count"":null,""note"":"""",""photo"":null},{""id"":15,""available"":1,""count"":20,""note"":null,""photo"":null}]",1,"2016-01-01 01:01:01","2016-02-17 12:55:54"
49,NKA-SM01,asd1,"[{""id"":1,""available"":0,""count"":99,""note"":""this is a note for the product in the report"",""photo"":null},{""id"":2,""available"":1,""count"":null,""note"":"""",""photo"":null},{""id"":15,""available"":1,""count"":20,""note"":null,""photo"":null}]",1,"2016-01-01 01:01:01","2016-02-17 12:57:07"
